-0.00046
 -0.000432
 -0.00042
 -0.000414
 -0.000407
 -0.000356 
-0.000353
 -0.000334
 -0.0003
 -0.000271
 -0.000231 
 -0.00016  
-0.000132  
-0.000064  
0.000051 
 0.00009 
 0.000144  
0.000181 
 0.000213 
 0.000242 
 0.00028 
 0.000331  
0.000402 
 0.000437  
0.000507  
0.000538 
 0.00059 
 0.000634 
 0.000674 
 0.000726 
 0.000762  
0.00081 
 0.000839 
 0.000846 
 0.00089  
0.000893  
0.000899  
0.000924  
0.000929  
0.000936  
0.000948  
0.000989  
0.001088
11111111
-0.000447
 -0.000388 
 -0.000383  
-0.000379  
-0.000326  
-0.000319  
-0.000193  
-0.000106  
-0.00004  
0.000065 
 0.000111 
 0.00017  
0.0002  
0.00023  
0.000255  
0.0003  
0.00038  
0.000413  
0.000477  
0.000524  
0.000561 
 0.000619  
0.000657  
0.000695 
 0.000742 
 0.000782 
 0.00086