%!PS-Adobe-3.0 EPSF-3.0
%%BoundingBox: (atend)
%%LanguageLevel: 2
%%Creator: Grace-5.1.22
%%CreationDate: Tue Nov 11 22:57:06 2014
%%DocumentData: Clean8Bit
%%Orientation: Portrait
%%Title: fit-gph.agr
%%For: wfr
%%DocumentNeededResources: (atend)
%%EndComments
%%BeginProlog
/m {moveto} def
/l {lineto} def
/s {stroke} def
/n {newpath} def
/c {closepath} def
/RL {rlineto} def
/SLW {setlinewidth} def
/GS {gsave} def
/GR {grestore} def
/SC {setcolor} def
/SGRY {setgray} def
/SRGB {setrgbcolor} def
/SD {setdash} def
/SLC {setlinecap} def
/SLJ {setlinejoin} def
/SCS {setcolorspace} def
/FFSF {findfont setfont} def
/CC {concat} def
/PXL {n m 0 0 RL s} def
/Color0 {1.0000 1.0000 1.0000} def
/Color1 {0.0000 0.0000 0.0000} def
/Color2 {1.0000 0.0000 0.0000} def
/Color3 {0.0000 1.0000 0.0000} def
/Color4 {0.0000 0.0000 1.0000} def
/Color5 {1.0000 1.0000 0.0000} def
/Color6 {0.7373 0.5608 0.5608} def
/Color7 {0.8627 0.8627 0.8627} def
/Color8 {0.5804 0.0000 0.8275} def
/Color9 {0.0000 1.0000 1.0000} def
/Color10 {1.0000 0.0000 1.0000} def
/Color11 {1.0000 0.6471 0.0000} def
/Color12 {0.4471 0.1294 0.7373} def
/Color13 {0.4039 0.0275 0.2824} def
/Color14 {0.2510 0.8784 0.8157} def
/Color15 {0.0000 0.5451 0.0000} def
/PTRN {
 /pat_bits exch def 
 <<
  /PaintType 2
  /PatternType 1 /TilingType 1
  /BBox[0 0 16 16]
  /XStep 16 /YStep 16
  /PaintProc {
   pop
   16 16 true [-1 0 0 -1 16 16] pat_bits imagemask
  }
 >>
 [0.0017 0 0 0.0017 0 0]
 makepattern
} def
/Pattern0 {<0000000000000000000000000000000000000000000000000000000000000000> PTRN} bind def
/Pattern1 {<ffffffffffffffffffffffffffffffffffffffffffffffffffffffffffffffff> PTRN} bind def
/Pattern2 {<eeeeffffbbbbffffeeeeffffbbbbffffeeeeffffbbbbffffeeeeffffbbbbffff> PTRN} bind def
/Pattern3 {<eeeebbbbeeeebbbbeeeebbbbeeeebbbbeeeebbbbeeeebbbbeeeebbbbeeeebbbb> PTRN} bind def
/Pattern4 {<5555aaaa5555aaaa5555aaaa5555aaaa5555aaaa5555aaaa5555aaaa5555aaaa> PTRN} bind def
/Pattern5 {<1111444411114444111144441111444411114444111144441111444411114444> PTRN} bind def
/Pattern6 {<1111000044440000111100004444000011110000444400001111000044440000> PTRN} bind def
/Pattern7 {<1010000000000000010100000000000010100000000000000101000000000000> PTRN} bind def
/Pattern8 {<0000000000000000000000000000000000000000000000000000000000000000> PTRN} bind def
/Pattern9 {<1e1e0f0f8787c3c3e1e1f0f078783c3c1e1e0f0f8787c3c3e1e1f0f078783c3c> PTRN} bind def
/Pattern10 {<7878f0f0e1e1c3c387870f0f1e1e3c3c7878f0f0e1e1c3c387870f0f1e1e3c3c> PTRN} bind def
/Pattern11 {<3333333333333333333333333333333333333333333333333333333333333333> PTRN} bind def
/Pattern12 {<ffffffff00000000ffffffff00000000ffffffff00000000ffffffff00000000> PTRN} bind def
/Pattern13 {<8181424224241818181824244242818181814242242418181818242442428181> PTRN} bind def
/Pattern14 {<8080404020201010080804040202010180804040202010100808040402020101> PTRN} bind def
/Pattern15 {<0101020204040808101020204040808001010202040408081010202040408080> PTRN} bind def
/Pattern16 {<2222222222222222222222222222222222222222222222222222222222222222> PTRN} bind def
/Pattern17 {<0000ffff000000000000ffff000000000000ffff000000000000ffff00000000> PTRN} bind def
/Pattern18 {<2222ffff222222222222ffff222222222222ffff222222222222ffff22222222> PTRN} bind def
/Pattern19 {<ffffffff33333333ffffffff33333333ffffffff33333333ffffffff33333333> PTRN} bind def
/Pattern20 {<0f0f0f0f0f0f0f0ff0f0f0f0f0f0f0f00f0f0f0f0f0f0f0ff0f0f0f0f0f0f0f0> PTRN} bind def
/Pattern21 {<ff00ff00ff00ff00ff00ff00ff00ff0000ff00ff00ff00ff00ff00ff00ff00ff> PTRN} bind def
/Pattern22 {<8001800180018001800180018001ffffffff8001800180018001800180018001> PTRN} bind def
/Pattern23 {<c003c003c003c003c003c003ffffffffffffffffc003c003c003c003c003c003> PTRN} bind def
/Pattern24 {<040404040404ffff404040404040ffff040404040404ffff404040404040ffff> PTRN} bind def
/Pattern25 {<180018001800180018001800ffffffff001800180018001800180018ffffffff> PTRN} bind def
/Pattern26 {<1111b8b87c7c3a3a1111a3a3c7c78b8b1111b8b87c7c3a3a1111a3a3c7c78b8b> PTRN} bind def
/Pattern27 {<101010102828c7c70101010182827c7c101010102828c7c70101010182827c7c> PTRN} bind def
/Pattern28 {<1c1c121211112121c1c12121111112121c1c121211112121c1c1212111111212> PTRN} bind def
/Pattern29 {<3e3e414180808080e3e31414080808083e3e414180808080e3e3141408080808> PTRN} bind def
/Pattern30 {<4848888884848383848488884848383848488888848483838484888848483838> PTRN} bind def
/Pattern31 {<03030404080808080c0c12122121c0c003030404080808080c0c12122121c0c0> PTRN} bind def
/ellipsedict 8 dict def
ellipsedict /mtrx matrix put
/EARC {
 ellipsedict begin
  /endangle exch def
  /startangle exch def
  /yrad exch def
  /xrad exch def
  /y exch def
  /x exch def
  /savematrix mtrx currentmatrix def
  x y translate
  xrad yrad scale
  0 0 1 startangle endangle arc
  savematrix setmatrix
 end
} def
/TL {
  /kcomp exch def
  /linewidth exch def
  /offset exch def
  GS
  0 offset rmoveto
  linewidth SLW
  dup stringwidth exch kcomp add exch RL s
  GR
} def
/KINIT
{
 /kvector exch def
 /kid 0 def
} def
/KPROC
{
 pop pop
 kvector kid get
 0 rmoveto
 /kid 1 kid add def
} def
/DefEncoding [
 /.notdef
 /.notdef
 /.notdef
 /.notdef
 /.notdef
 /.notdef
 /.notdef
 /.notdef
 /.notdef
 /.notdef
 /.notdef
 /.notdef
 /.notdef
 /.notdef
 /.notdef
 /.notdef
 /.notdef
 /.notdef
 /.notdef
 /.notdef
 /.notdef
 /.notdef
 /.notdef
 /.notdef
 /.notdef
 /.notdef
 /.notdef
 /.notdef
 /.notdef
 /.notdef
 /.notdef
 /.notdef
 /space
 /exclam
 /quotedbl
 /numbersign
 /dollar
 /percent
 /ampersand
 /quoteright
 /parenleft
 /parenright
 /asterisk
 /plus
 /comma
 /hyphen
 /period
 /slash
 /zero
 /one
 /two
 /three
 /four
 /five
 /six
 /seven
 /eight
 /nine
 /colon
 /semicolon
 /less
 /equal
 /greater
 /question
 /at
 /A
 /B
 /C
 /D
 /E
 /F
 /G
 /H
 /I
 /J
 /K
 /L
 /M
 /N
 /O
 /P
 /Q
 /R
 /S
 /T
 /U
 /V
 /W
 /X
 /Y
 /Z
 /bracketleft
 /backslash
 /bracketright
 /asciicircum
 /underscore
 /grave
 /a
 /b
 /c
 /d
 /e
 /f
 /g
 /h
 /i
 /j
 /k
 /l
 /m
 /n
 /o
 /p
 /q
 /r
 /s
 /t
 /u
 /v
 /w
 /x
 /y
 /z
 /braceleft
 /bar
 /braceright
 /asciitilde
 /.notdef
 /.notdef
 /.notdef
 /.notdef
 /.notdef
 /.notdef
 /.notdef
 /.notdef
 /.notdef
 /.notdef
 /.notdef
 /.notdef
 /.notdef
 /.notdef
 /.notdef
 /.notdef
 /.notdef
 /.notdef
 /.notdef
 /.notdef
 /.notdef
 /.notdef
 /.notdef
 /.notdef
 /.notdef
 /.notdef
 /.notdef
 /.notdef
 /.notdef
 /.notdef
 /.notdef
 /.notdef
 /.notdef
 /space
 /exclamdown
 /cent
 /sterling
 /currency
 /yen
 /brokenbar
 /section
 /dieresis
 /copyright
 /ordfeminine
 /guillemotleft
 /logicalnot
 /hyphen
 /registered
 /macron
 /degree
 /plusminus
 /twosuperior
 /threesuperior
 /acute
 /mu
 /paragraph
 /periodcentered
 /cedilla
 /onesuperior
 /ordmasculine
 /guillemotright
 /onequarter
 /onehalf
 /threequarters
 /questiondown
 /Agrave
 /Aacute
 /Acircumflex
 /Atilde
 /Adieresis
 /Aring
 /AE
 /Ccedilla
 /Egrave
 /Eacute
 /Ecircumflex
 /Edieresis
 /Igrave
 /Iacute
 /Icircumflex
 /Idieresis
 /Eth
 /Ntilde
 /Ograve
 /Oacute
 /Ocircumflex
 /Otilde
 /Odieresis
 /multiply
 /Oslash
 /Ugrave
 /Uacute
 /Ucircumflex
 /Udieresis
 /Yacute
 /Thorn
 /germandbls
 /agrave
 /aacute
 /acircumflex
 /atilde
 /adieresis
 /aring
 /ae
 /ccedilla
 /egrave
 /eacute
 /ecircumflex
 /edieresis
 /igrave
 /iacute
 /icircumflex
 /idieresis
 /eth
 /ntilde
 /ograve
 /oacute
 /ocircumflex
 /otilde
 /odieresis
 /divide
 /oslash
 /ugrave
 /uacute
 /ucircumflex
 /udieresis
 /yacute
 /thorn
 /ydieresis
] def
%%EndProlog
%%BeginSetup
%%EndSetup
600.00 600.00 scale
n
0.0000 0.0000 m
0.0000 1.0000 l
1.2884 1.0000 l
1.2884 0.0000 l
c
[/DeviceRGB] SCS
Color0 SC
fill
[/DeviceRGB] SCS
Color1 SC
[] 0 SD
0.0030 SLW
n 0.1832 0.4020 0.0050 0.0050 0 360 EARC s
n 0.2389 0.4314 0.0050 0.0050 0 360 EARC s
n 0.2888 0.4572 0.0050 0.0050 0 360 EARC s
n 0.3344 0.4805 0.0050 0.0050 0 360 EARC s
n 0.3769 0.5020 0.0050 0.0050 0 360 EARC s
n 0.4167 0.5219 0.0050 0.0050 0 360 EARC s
n 0.4545 0.5407 0.0050 0.0050 0 360 EARC s
n 0.4904 0.5585 0.0050 0.0050 0 360 EARC s
n 0.5247 0.5755 0.0050 0.0050 0 360 EARC s
n 0.5577 0.5917 0.0050 0.0050 0 360 EARC s
n 0.5894 0.6073 0.0050 0.0050 0 360 EARC s
n 0.6201 0.6223 0.0050 0.0050 0 360 EARC s
n 0.6498 0.6368 0.0050 0.0050 0 360 EARC s
n 0.6786 0.6509 0.0050 0.0050 0 360 EARC s
n 0.7066 0.6645 0.0050 0.0050 0 360 EARC s
n 0.7339 0.6778 0.0050 0.0050 0 360 EARC s
n 0.7605 0.6907 0.0050 0.0050 0 360 EARC s
n 0.7864 0.7033 0.0050 0.0050 0 360 EARC s
n 0.8118 0.7156 0.0050 0.0050 0 360 EARC s
n 0.8366 0.7276 0.0050 0.0050 0 360 EARC s
n 0.8609 0.7393 0.0050 0.0050 0 360 EARC s
n 0.8847 0.7508 0.0050 0.0050 0 360 EARC s
n 0.9080 0.7621 0.0050 0.0050 0 360 EARC s
n 0.9310 0.7732 0.0050 0.0050 0 360 EARC s
n 0.9535 0.7840 0.0050 0.0050 0 360 EARC s
n 0.9756 0.7947 0.0050 0.0050 0 360 EARC s
n 0.9974 0.8052 0.0050 0.0050 0 360 EARC s
n 1.0188 0.8155 0.0050 0.0050 0 360 EARC s
[/DeviceRGB] SCS
Color2 SC
[] 0 SD
0.0015 SLW
0 SLC
0 SLJ
n
0.1832 0.4184 m
0.1919 0.4225 l
0.2005 0.4266 l
0.2092 0.4307 l
0.2178 0.4349 l
0.2264 0.4390 l
0.2351 0.4431 l
0.2437 0.4472 l
0.2523 0.4513 l
0.2610 0.4554 l
0.2696 0.4595 l
0.2783 0.4637 l
0.2869 0.4678 l
0.2955 0.4719 l
0.3042 0.4760 l
0.3128 0.4801 l
0.3215 0.4842 l
0.3301 0.4883 l
0.3387 0.4924 l
0.3474 0.4966 l
0.3560 0.5007 l
0.3646 0.5048 l
0.3733 0.5089 l
0.3819 0.5130 l
0.3906 0.5171 l
0.3992 0.5212 l
0.4078 0.5253 l
0.4165 0.5295 l
0.4251 0.5336 l
0.4337 0.5377 l
0.4424 0.5418 l
0.4510 0.5459 l
0.4597 0.5500 l
0.4683 0.5541 l
0.4769 0.5583 l
0.4856 0.5624 l
0.4942 0.5665 l
0.5028 0.5706 l
0.5115 0.5747 l
0.5201 0.5788 l
0.5288 0.5829 l
0.5374 0.5870 l
0.5460 0.5912 l
0.5547 0.5953 l
0.5633 0.5994 l
0.5720 0.6035 l
0.5806 0.6076 l
0.5892 0.6117 l
0.5979 0.6158 l
0.6065 0.6199 l
0.6151 0.6241 l
0.6238 0.6282 l
0.6324 0.6323 l
0.6411 0.6364 l
0.6497 0.6405 l
0.6583 0.6446 l
0.6670 0.6487 l
0.6756 0.6529 l
0.6842 0.6570 l
0.6929 0.6611 l
0.7015 0.6652 l
0.7102 0.6693 l
0.7188 0.6734 l
0.7274 0.6775 l
0.7361 0.6816 l
0.7447 0.6858 l
0.7533 0.6899 l
0.7620 0.6940 l
0.7706 0.6981 l
0.7793 0.7022 l
0.7879 0.7063 l
0.7965 0.7104 l
0.8052 0.7145 l
0.8138 0.7187 l
0.8224 0.7228 l
0.8311 0.7269 l
0.8397 0.7310 l
0.8484 0.7351 l
0.8570 0.7392 l
0.8656 0.7433 l
0.8743 0.7474 l
0.8829 0.7516 l
0.8916 0.7557 l
0.9002 0.7598 l
0.9088 0.7639 l
0.9175 0.7680 l
0.9261 0.7721 l
0.9347 0.7762 l
0.9434 0.7804 l
0.9520 0.7845 l
0.9607 0.7886 l
0.9693 0.7927 l
0.9779 0.7968 l
0.9866 0.8009 l
0.9952 0.8050 l
1.0038 0.8091 l
1.0125 0.8133 l
1.0211 0.8174 l
1.0298 0.8215 l
1.0384 0.8256 l
s
[/DeviceRGB] SCS
Color1 SC
[] 0 SD
0.0030 SLW
n
0.1832 0.4184 m
0.1919 0.4225 l
0.2005 0.4266 l
0.2092 0.4307 l
0.2178 0.4349 l
0.2264 0.4390 l
0.2351 0.4431 l
0.2437 0.4472 l
0.2523 0.4513 l
0.2610 0.4554 l
0.2696 0.4595 l
0.2783 0.4637 l
0.2869 0.4678 l
0.2955 0.4719 l
0.3042 0.4760 l
0.3128 0.4801 l
0.3215 0.4842 l
0.3301 0.4883 l
0.3387 0.4924 l
0.3474 0.4966 l
0.3560 0.5007 l
0.3646 0.5048 l
0.3733 0.5089 l
0.3819 0.5130 l
0.3906 0.5171 l
0.3992 0.5212 l
0.4078 0.5253 l
0.4165 0.5295 l
0.4251 0.5336 l
0.4337 0.5377 l
0.4424 0.5418 l
0.4510 0.5459 l
0.4597 0.5500 l
0.4683 0.5541 l
0.4769 0.5583 l
0.4856 0.5624 l
0.4942 0.5665 l
0.5028 0.5706 l
0.5115 0.5747 l
0.5201 0.5788 l
0.5288 0.5829 l
0.5374 0.5870 l
0.5460 0.5912 l
0.5547 0.5953 l
0.5633 0.5994 l
0.5720 0.6035 l
0.5806 0.6076 l
0.5892 0.6117 l
0.5979 0.6158 l
0.6065 0.6199 l
0.6151 0.6241 l
0.6238 0.6282 l
0.6324 0.6323 l
0.6411 0.6364 l
0.6497 0.6405 l
0.6583 0.6446 l
0.6670 0.6487 l
0.6756 0.6529 l
0.6842 0.6570 l
0.6929 0.6611 l
0.7015 0.6652 l
0.7102 0.6693 l
0.7188 0.6734 l
0.7274 0.6775 l
0.7361 0.6816 l
0.7447 0.6858 l
0.7533 0.6899 l
0.7620 0.6940 l
0.7706 0.6981 l
0.7793 0.7022 l
0.7879 0.7063 l
0.7965 0.7104 l
0.8052 0.7145 l
0.8138 0.7187 l
0.8224 0.7228 l
0.8311 0.7269 l
0.8397 0.7310 l
0.8484 0.7351 l
0.8570 0.7392 l
0.8656 0.7433 l
0.8743 0.7474 l
0.8829 0.7516 l
0.8916 0.7557 l
0.9002 0.7598 l
0.9088 0.7639 l
0.9175 0.7680 l
0.9261 0.7721 l
0.9347 0.7762 l
0.9434 0.7804 l
0.9520 0.7845 l
0.9607 0.7886 l
0.9693 0.7927 l
0.9779 0.7968 l
0.9866 0.8009 l
0.9952 0.8050 l
1.0038 0.8091 l
1.0125 0.8133 l
1.0211 0.8174 l
1.0298 0.8215 l
1.0384 0.8256 l
s
n
0.2688 0.1500 m
0.2688 0.1700 l
s
n
0.2688 0.8500 m
0.2688 0.8300 l
s
n
0.4398 0.1500 m
0.4398 0.1700 l
s
n
0.4398 0.8500 m
0.4398 0.8300 l
s
n
0.6108 0.1500 m
0.6108 0.1700 l
s
n
0.6108 0.8500 m
0.6108 0.8300 l
s
n
0.7819 0.1500 m
0.7819 0.1700 l
s
n
0.7819 0.8500 m
0.7819 0.8300 l
s
n
0.9529 0.1500 m
0.9529 0.1700 l
s
n
0.9529 0.8500 m
0.9529 0.8300 l
s
n
0.1832 0.1500 m
0.1832 0.1800 l
s
n
0.1832 0.8500 m
0.1832 0.8200 l
s
n
0.3543 0.1500 m
0.3543 0.1800 l
s
n
0.3543 0.8500 m
0.3543 0.8200 l
s
n
0.5253 0.1500 m
0.5253 0.1800 l
s
n
0.5253 0.8500 m
0.5253 0.8200 l
s
n
0.6963 0.1500 m
0.6963 0.1800 l
s
n
0.6963 0.8500 m
0.6963 0.8200 l
s
n
0.8674 0.1500 m
0.8674 0.1800 l
s
n
0.8674 0.8500 m
0.8674 0.8200 l
s
n
1.0384 0.1500 m
1.0384 0.1800 l
s
n
1.0384 0.8500 m
1.0384 0.8200 l
s
/Helvetica findfont
dup length dict begin
 {1 index /FID ne {def} {pop pop} ifelse} forall
 /Encoding DefEncoding def
 currentdict
end
/Font12 exch definefont pop
/Font12 FFSF
0.1548 0.1104 m
GS
[0.0420 0.0000 0.0000 0.0420 0 0] CC
(0.0) show
GR
/Font12 FFSF
0.3259 0.1104 m
GS
[0.0420 0.0000 0.0000 0.0420 0 0] CC
(1.0) show
GR
/Font12 FFSF
0.4969 0.1104 m
GS
[0.0420 0.0000 0.0000 0.0420 0 0] CC
(2.0) show
GR
/Font12 FFSF
0.6679 0.1104 m
GS
[0.0420 0.0000 0.0000 0.0420 0 0] CC
(3.0) show
GR
/Font12 FFSF
0.8390 0.1104 m
GS
[0.0420 0.0000 0.0000 0.0420 0 0] CC
(4.0) show
GR
/Font12 FFSF
1.0100 0.1104 m
GS
[0.0420 0.0000 0.0000 0.0420 0 0] CC
(5.0) show
GR
/Font12 FFSF
0.5896 0.0688 m
GS
[0.0420 0.0000 0.0000 0.0420 0 0] CC
(t/s) show
GR
n
0.1832 0.2047 m
0.2032 0.2047 l
s
n
1.0384 0.2047 m
1.0184 0.2047 l
s
n
0.1832 0.3140 m
0.2032 0.3140 l
s
n
1.0384 0.3140 m
1.0184 0.3140 l
s
n
0.1832 0.4234 m
0.2032 0.4234 l
s
n
1.0384 0.4234 m
1.0184 0.4234 l
s
n
0.1832 0.5328 m
0.2032 0.5328 l
s
n
1.0384 0.5328 m
1.0184 0.5328 l
s
n
0.1832 0.6422 m
0.2032 0.6422 l
s
n
1.0384 0.6422 m
1.0184 0.6422 l
s
n
0.1832 0.7515 m
0.2032 0.7515 l
s
n
1.0384 0.7515 m
1.0184 0.7515 l
s
n
0.1832 0.1500 m
0.2132 0.1500 l
s
n
1.0384 0.1500 m
1.0084 0.1500 l
s
n
0.1832 0.2594 m
0.2132 0.2594 l
s
n
1.0384 0.2594 m
1.0084 0.2594 l
s
n
0.1832 0.3687 m
0.2132 0.3687 l
s
n
1.0384 0.3687 m
1.0084 0.3687 l
s
n
0.1832 0.4781 m
0.2132 0.4781 l
s
n
1.0384 0.4781 m
1.0084 0.4781 l
s
n
0.1832 0.5875 m
0.2132 0.5875 l
s
n
1.0384 0.5875 m
1.0084 0.5875 l
s
n
0.1832 0.6968 m
0.2132 0.6968 l
s
n
1.0384 0.6968 m
1.0084 0.6968 l
s
n
0.1832 0.8062 m
0.2132 0.8062 l
s
n
1.0384 0.8062 m
1.0084 0.8062 l
s
/Font12 FFSF
0.1516 0.1356 m
GS
[0.0420 0.0000 0.0000 0.0420 0 0] CC
(0) show
GR
/Font12 FFSF
0.1284 0.2450 m
GS
[0.0420 0.0000 0.0000 0.0420 0 0] CC
(50) show
GR
/Font12 FFSF
0.1048 0.3543 m
GS
[0.0420 0.0000 0.0000 0.0420 0 0] CC
(100) show
GR
/Font12 FFSF
0.1048 0.4637 m
GS
[0.0420 0.0000 0.0000 0.0420 0 0] CC
(150) show
GR
/Font12 FFSF
0.1048 0.5731 m
GS
[0.0420 0.0000 0.0000 0.0420 0 0] CC
(200) show
GR
/Font12 FFSF
0.1048 0.6824 m
GS
[0.0420 0.0000 0.0000 0.0420 0 0] CC
(250) show
GR
/Font12 FFSF
0.1048 0.7918 m
GS
[0.0420 0.0000 0.0000 0.0420 0 0] CC
(300) show
GR
/Font12 FFSF
0.0856 0.4536 m
GS
[0.0000 0.0420 -0.0420 0.0000 0 0] CC
(f/rpm) show
GR
n
0.1832 0.1500 m
0.1832 0.8500 l
1.0384 0.8500 l
1.0384 0.1500 l
0.1832 0.1500 l
c
s
%%Trailer
%%BoundingBox: 31 39 642 512
%%DocumentNeededResources: font Helvetica
%%EOF
