%!PS-Adobe-3.0 EPSF-3.0
%%BoundingBox: (atend)
%%LanguageLevel: 2
%%Creator: Grace-5.1.22
%%CreationDate: Tue Nov 11 22:51:23 2014
%%DocumentData: Clean8Bit
%%Orientation: Portrait
%%Title: fit-gph.agr
%%For: wfr
%%DocumentNeededResources: (atend)
%%EndComments
%%BeginProlog
/m {moveto} def
/l {lineto} def
/s {stroke} def
/n {newpath} def
/c {closepath} def
/RL {rlineto} def
/SLW {setlinewidth} def
/GS {gsave} def
/GR {grestore} def
/SC {setcolor} def
/SGRY {setgray} def
/SRGB {setrgbcolor} def
/SD {setdash} def
/SLC {setlinecap} def
/SLJ {setlinejoin} def
/SCS {setcolorspace} def
/FFSF {findfont setfont} def
/CC {concat} def
/PXL {n m 0 0 RL s} def
/Color0 {1.0000 1.0000 1.0000} def
/Color1 {0.0000 0.0000 0.0000} def
/Color2 {1.0000 0.0000 0.0000} def
/Color3 {0.0000 1.0000 0.0000} def
/Color4 {0.0000 0.0000 1.0000} def
/Color5 {1.0000 1.0000 0.0000} def
/Color6 {0.7373 0.5608 0.5608} def
/Color7 {0.8627 0.8627 0.8627} def
/Color8 {0.5804 0.0000 0.8275} def
/Color9 {0.0000 1.0000 1.0000} def
/Color10 {1.0000 0.0000 1.0000} def
/Color11 {1.0000 0.6471 0.0000} def
/Color12 {0.4471 0.1294 0.7373} def
/Color13 {0.4039 0.0275 0.2824} def
/Color14 {0.2510 0.8784 0.8157} def
/Color15 {0.0000 0.5451 0.0000} def
/PTRN {
 /pat_bits exch def 
 <<
  /PaintType 2
  /PatternType 1 /TilingType 1
  /BBox[0 0 16 16]
  /XStep 16 /YStep 16
  /PaintProc {
   pop
   16 16 true [-1 0 0 -1 16 16] pat_bits imagemask
  }
 >>
 [0.0017 0 0 0.0017 0 0]
 makepattern
} def
/Pattern0 {<0000000000000000000000000000000000000000000000000000000000000000> PTRN} bind def
/Pattern1 {<ffffffffffffffffffffffffffffffffffffffffffffffffffffffffffffffff> PTRN} bind def
/Pattern2 {<eeeeffffbbbbffffeeeeffffbbbbffffeeeeffffbbbbffffeeeeffffbbbbffff> PTRN} bind def
/Pattern3 {<eeeebbbbeeeebbbbeeeebbbbeeeebbbbeeeebbbbeeeebbbbeeeebbbbeeeebbbb> PTRN} bind def
/Pattern4 {<5555aaaa5555aaaa5555aaaa5555aaaa5555aaaa5555aaaa5555aaaa5555aaaa> PTRN} bind def
/Pattern5 {<1111444411114444111144441111444411114444111144441111444411114444> PTRN} bind def
/Pattern6 {<1111000044440000111100004444000011110000444400001111000044440000> PTRN} bind def
/Pattern7 {<1010000000000000010100000000000010100000000000000101000000000000> PTRN} bind def
/Pattern8 {<0000000000000000000000000000000000000000000000000000000000000000> PTRN} bind def
/Pattern9 {<1e1e0f0f8787c3c3e1e1f0f078783c3c1e1e0f0f8787c3c3e1e1f0f078783c3c> PTRN} bind def
/Pattern10 {<7878f0f0e1e1c3c387870f0f1e1e3c3c7878f0f0e1e1c3c387870f0f1e1e3c3c> PTRN} bind def
/Pattern11 {<3333333333333333333333333333333333333333333333333333333333333333> PTRN} bind def
/Pattern12 {<ffffffff00000000ffffffff00000000ffffffff00000000ffffffff00000000> PTRN} bind def
/Pattern13 {<8181424224241818181824244242818181814242242418181818242442428181> PTRN} bind def
/Pattern14 {<8080404020201010080804040202010180804040202010100808040402020101> PTRN} bind def
/Pattern15 {<0101020204040808101020204040808001010202040408081010202040408080> PTRN} bind def
/Pattern16 {<2222222222222222222222222222222222222222222222222222222222222222> PTRN} bind def
/Pattern17 {<0000ffff000000000000ffff000000000000ffff000000000000ffff00000000> PTRN} bind def
/Pattern18 {<2222ffff222222222222ffff222222222222ffff222222222222ffff22222222> PTRN} bind def
/Pattern19 {<ffffffff33333333ffffffff33333333ffffffff33333333ffffffff33333333> PTRN} bind def
/Pattern20 {<0f0f0f0f0f0f0f0ff0f0f0f0f0f0f0f00f0f0f0f0f0f0f0ff0f0f0f0f0f0f0f0> PTRN} bind def
/Pattern21 {<ff00ff00ff00ff00ff00ff00ff00ff0000ff00ff00ff00ff00ff00ff00ff00ff> PTRN} bind def
/Pattern22 {<8001800180018001800180018001ffffffff8001800180018001800180018001> PTRN} bind def
/Pattern23 {<c003c003c003c003c003c003ffffffffffffffffc003c003c003c003c003c003> PTRN} bind def
/Pattern24 {<040404040404ffff404040404040ffff040404040404ffff404040404040ffff> PTRN} bind def
/Pattern25 {<180018001800180018001800ffffffff001800180018001800180018ffffffff> PTRN} bind def
/Pattern26 {<1111b8b87c7c3a3a1111a3a3c7c78b8b1111b8b87c7c3a3a1111a3a3c7c78b8b> PTRN} bind def
/Pattern27 {<101010102828c7c70101010182827c7c101010102828c7c70101010182827c7c> PTRN} bind def
/Pattern28 {<1c1c121211112121c1c12121111112121c1c121211112121c1c1212111111212> PTRN} bind def
/Pattern29 {<3e3e414180808080e3e31414080808083e3e414180808080e3e3141408080808> PTRN} bind def
/Pattern30 {<4848888884848383848488884848383848488888848483838484888848483838> PTRN} bind def
/Pattern31 {<03030404080808080c0c12122121c0c003030404080808080c0c12122121c0c0> PTRN} bind def
/ellipsedict 8 dict def
ellipsedict /mtrx matrix put
/EARC {
 ellipsedict begin
  /endangle exch def
  /startangle exch def
  /yrad exch def
  /xrad exch def
  /y exch def
  /x exch def
  /savematrix mtrx currentmatrix def
  x y translate
  xrad yrad scale
  0 0 1 startangle endangle arc
  savematrix setmatrix
 end
} def
/TL {
  /kcomp exch def
  /linewidth exch def
  /offset exch def
  GS
  0 offset rmoveto
  linewidth SLW
  dup stringwidth exch kcomp add exch RL s
  GR
} def
/KINIT
{
 /kvector exch def
 /kid 0 def
} def
/KPROC
{
 pop pop
 kvector kid get
 0 rmoveto
 /kid 1 kid add def
} def
/DefEncoding [
 /.notdef
 /.notdef
 /.notdef
 /.notdef
 /.notdef
 /.notdef
 /.notdef
 /.notdef
 /.notdef
 /.notdef
 /.notdef
 /.notdef
 /.notdef
 /.notdef
 /.notdef
 /.notdef
 /.notdef
 /.notdef
 /.notdef
 /.notdef
 /.notdef
 /.notdef
 /.notdef
 /.notdef
 /.notdef
 /.notdef
 /.notdef
 /.notdef
 /.notdef
 /.notdef
 /.notdef
 /.notdef
 /space
 /exclam
 /quotedbl
 /numbersign
 /dollar
 /percent
 /ampersand
 /quoteright
 /parenleft
 /parenright
 /asterisk
 /plus
 /comma
 /hyphen
 /period
 /slash
 /zero
 /one
 /two
 /three
 /four
 /five
 /six
 /seven
 /eight
 /nine
 /colon
 /semicolon
 /less
 /equal
 /greater
 /question
 /at
 /A
 /B
 /C
 /D
 /E
 /F
 /G
 /H
 /I
 /J
 /K
 /L
 /M
 /N
 /O
 /P
 /Q
 /R
 /S
 /T
 /U
 /V
 /W
 /X
 /Y
 /Z
 /bracketleft
 /backslash
 /bracketright
 /asciicircum
 /underscore
 /grave
 /a
 /b
 /c
 /d
 /e
 /f
 /g
 /h
 /i
 /j
 /k
 /l
 /m
 /n
 /o
 /p
 /q
 /r
 /s
 /t
 /u
 /v
 /w
 /x
 /y
 /z
 /braceleft
 /bar
 /braceright
 /asciitilde
 /.notdef
 /.notdef
 /.notdef
 /.notdef
 /.notdef
 /.notdef
 /.notdef
 /.notdef
 /.notdef
 /.notdef
 /.notdef
 /.notdef
 /.notdef
 /.notdef
 /.notdef
 /.notdef
 /.notdef
 /.notdef
 /.notdef
 /.notdef
 /.notdef
 /.notdef
 /.notdef
 /.notdef
 /.notdef
 /.notdef
 /.notdef
 /.notdef
 /.notdef
 /.notdef
 /.notdef
 /.notdef
 /.notdef
 /space
 /exclamdown
 /cent
 /sterling
 /currency
 /yen
 /brokenbar
 /section
 /dieresis
 /copyright
 /ordfeminine
 /guillemotleft
 /logicalnot
 /hyphen
 /registered
 /macron
 /degree
 /plusminus
 /twosuperior
 /threesuperior
 /acute
 /mu
 /paragraph
 /periodcentered
 /cedilla
 /onesuperior
 /ordmasculine
 /guillemotright
 /onequarter
 /onehalf
 /threequarters
 /questiondown
 /Agrave
 /Aacute
 /Acircumflex
 /Atilde
 /Adieresis
 /Aring
 /AE
 /Ccedilla
 /Egrave
 /Eacute
 /Ecircumflex
 /Edieresis
 /Igrave
 /Iacute
 /Icircumflex
 /Idieresis
 /Eth
 /Ntilde
 /Ograve
 /Oacute
 /Ocircumflex
 /Otilde
 /Odieresis
 /multiply
 /Oslash
 /Ugrave
 /Uacute
 /Ucircumflex
 /Udieresis
 /Yacute
 /Thorn
 /germandbls
 /agrave
 /aacute
 /acircumflex
 /atilde
 /adieresis
 /aring
 /ae
 /ccedilla
 /egrave
 /eacute
 /ecircumflex
 /edieresis
 /igrave
 /iacute
 /icircumflex
 /idieresis
 /eth
 /ntilde
 /ograve
 /oacute
 /ocircumflex
 /otilde
 /odieresis
 /divide
 /oslash
 /ugrave
 /uacute
 /ucircumflex
 /udieresis
 /yacute
 /thorn
 /ydieresis
] def
%%EndProlog
%%BeginSetup
%%EndSetup
600.00 600.00 scale
n
0.0000 0.0000 m
0.0000 1.0000 l
1.2884 1.0000 l
1.2884 0.0000 l
c
[/DeviceRGB] SCS
Color0 SC
fill
[/DeviceRGB] SCS
Color1 SC
[] 0 SD
0.0030 SLW
n 0.1832 0.2163 0.0050 0.0050 0 360 EARC s
n 0.1927 0.2240 0.0050 0.0050 0 360 EARC s
n 0.2012 0.2308 0.0050 0.0050 0 360 EARC s
n 0.2089 0.2369 0.0050 0.0050 0 360 EARC s
n 0.2162 0.2426 0.0050 0.0050 0 360 EARC s
n 0.2229 0.2478 0.0050 0.0050 0 360 EARC s
n 0.2293 0.2527 0.0050 0.0050 0 360 EARC s
n 0.2354 0.2574 0.0050 0.0050 0 360 EARC s
n 0.2413 0.2619 0.0050 0.0050 0 360 EARC s
n 0.2469 0.2662 0.0050 0.0050 0 360 EARC s
n 0.2523 0.2703 0.0050 0.0050 0 360 EARC s
n 0.2575 0.2742 0.0050 0.0050 0 360 EARC s
n 0.2626 0.2780 0.0050 0.0050 0 360 EARC s
n 0.2675 0.2817 0.0050 0.0050 0 360 EARC s
n 0.2722 0.2853 0.0050 0.0050 0 360 EARC s
n 0.2768 0.2888 0.0050 0.0050 0 360 EARC s
n 0.2814 0.2922 0.0050 0.0050 0 360 EARC s
n 0.2858 0.2955 0.0050 0.0050 0 360 EARC s
n 0.2901 0.2987 0.0050 0.0050 0 360 EARC s
n 0.2943 0.3019 0.0050 0.0050 0 360 EARC s
n 0.2984 0.3050 0.0050 0.0050 0 360 EARC s
n 0.3025 0.3080 0.0050 0.0050 0 360 EARC s
n 0.3064 0.3110 0.0050 0.0050 0 360 EARC s
n 0.3103 0.3139 0.0050 0.0050 0 360 EARC s
n 0.3142 0.3167 0.0050 0.0050 0 360 EARC s
n 0.3179 0.3195 0.0050 0.0050 0 360 EARC s
n 0.3216 0.3223 0.0050 0.0050 0 360 EARC s
n 0.3253 0.3250 0.0050 0.0050 0 360 EARC s
n 0.3289 0.3277 0.0050 0.0050 0 360 EARC s
n 0.3324 0.3303 0.0050 0.0050 0 360 EARC s
n 0.3359 0.3329 0.0050 0.0050 0 360 EARC s
n 0.3393 0.3354 0.0050 0.0050 0 360 EARC s
n 0.3427 0.3380 0.0050 0.0050 0 360 EARC s
n 0.3460 0.3404 0.0050 0.0050 0 360 EARC s
n 0.3493 0.3429 0.0050 0.0050 0 360 EARC s
n 0.3525 0.3453 0.0050 0.0050 0 360 EARC s
n 0.3558 0.3477 0.0050 0.0050 0 360 EARC s
n 0.3589 0.3500 0.0050 0.0050 0 360 EARC s
n 0.3621 0.3524 0.0050 0.0050 0 360 EARC s
n 0.3652 0.3547 0.0050 0.0050 0 360 EARC s
n 0.3682 0.3569 0.0050 0.0050 0 360 EARC s
n 0.3713 0.3592 0.0050 0.0050 0 360 EARC s
n 0.3743 0.3614 0.0050 0.0050 0 360 EARC s
n 0.3772 0.3636 0.0050 0.0050 0 360 EARC s
n 0.3802 0.3658 0.0050 0.0050 0 360 EARC s
n 0.3831 0.3679 0.0050 0.0050 0 360 EARC s
n 0.3859 0.3701 0.0050 0.0050 0 360 EARC s
n 0.3888 0.3722 0.0050 0.0050 0 360 EARC s
n 0.3916 0.3743 0.0050 0.0050 0 360 EARC s
n 0.3944 0.3763 0.0050 0.0050 0 360 EARC s
n 0.3972 0.3784 0.0050 0.0050 0 360 EARC s
n 0.3999 0.3804 0.0050 0.0050 0 360 EARC s
n 0.4027 0.3824 0.0050 0.0050 0 360 EARC s
n 0.4053 0.3844 0.0050 0.0050 0 360 EARC s
n 0.4080 0.3864 0.0050 0.0050 0 360 EARC s
n 0.4107 0.3884 0.0050 0.0050 0 360 EARC s
n 0.4133 0.3903 0.0050 0.0050 0 360 EARC s
n 0.4159 0.3922 0.0050 0.0050 0 360 EARC s
n 0.4185 0.3942 0.0050 0.0050 0 360 EARC s
n 0.4211 0.3961 0.0050 0.0050 0 360 EARC s
n 0.4236 0.3979 0.0050 0.0050 0 360 EARC s
n 0.4262 0.3998 0.0050 0.0050 0 360 EARC s
n 0.4287 0.4017 0.0050 0.0050 0 360 EARC s
n 0.4312 0.4035 0.0050 0.0050 0 360 EARC s
n 0.4336 0.4053 0.0050 0.0050 0 360 EARC s
n 0.4361 0.4071 0.0050 0.0050 0 360 EARC s
n 0.4385 0.4089 0.0050 0.0050 0 360 EARC s
n 0.4409 0.4107 0.0050 0.0050 0 360 EARC s
n 0.4433 0.4125 0.0050 0.0050 0 360 EARC s
n 0.4457 0.4143 0.0050 0.0050 0 360 EARC s
n 0.4481 0.4160 0.0050 0.0050 0 360 EARC s
n 0.4505 0.4178 0.0050 0.0050 0 360 EARC s
n 0.4528 0.4195 0.0050 0.0050 0 360 EARC s
n 0.4551 0.4212 0.0050 0.0050 0 360 EARC s
n 0.4574 0.4229 0.0050 0.0050 0 360 EARC s
n 0.4597 0.4246 0.0050 0.0050 0 360 EARC s
n 0.4620 0.4263 0.0050 0.0050 0 360 EARC s
n 0.4643 0.4280 0.0050 0.0050 0 360 EARC s
n 0.4666 0.4296 0.0050 0.0050 0 360 EARC s
n 0.4688 0.4313 0.0050 0.0050 0 360 EARC s
n 0.4710 0.4329 0.0050 0.0050 0 360 EARC s
n 0.4732 0.4346 0.0050 0.0050 0 360 EARC s
n 0.4754 0.4362 0.0050 0.0050 0 360 EARC s
n 0.4776 0.4378 0.0050 0.0050 0 360 EARC s
n 0.4798 0.4394 0.0050 0.0050 0 360 EARC s
n 0.4820 0.4410 0.0050 0.0050 0 360 EARC s
n 0.4841 0.4426 0.0050 0.0050 0 360 EARC s
n 0.4863 0.4442 0.0050 0.0050 0 360 EARC s
n 0.4884 0.4458 0.0050 0.0050 0 360 EARC s
n 0.4905 0.4473 0.0050 0.0050 0 360 EARC s
n 0.4926 0.4489 0.0050 0.0050 0 360 EARC s
n 0.4947 0.4504 0.0050 0.0050 0 360 EARC s
n 0.4968 0.4520 0.0050 0.0050 0 360 EARC s
n 0.4989 0.4535 0.0050 0.0050 0 360 EARC s
n 0.5010 0.4550 0.0050 0.0050 0 360 EARC s
n 0.5030 0.4565 0.0050 0.0050 0 360 EARC s
n 0.5051 0.4580 0.0050 0.0050 0 360 EARC s
n 0.5071 0.4595 0.0050 0.0050 0 360 EARC s
n 0.5091 0.4610 0.0050 0.0050 0 360 EARC s
n 0.5112 0.4625 0.0050 0.0050 0 360 EARC s
n 0.5132 0.4640 0.0050 0.0050 0 360 EARC s
n 0.5152 0.4655 0.0050 0.0050 0 360 EARC s
n 0.5171 0.4669 0.0050 0.0050 0 360 EARC s
n 0.5191 0.4684 0.0050 0.0050 0 360 EARC s
n 0.5211 0.4699 0.0050 0.0050 0 360 EARC s
n 0.5231 0.4713 0.0050 0.0050 0 360 EARC s
n 0.5250 0.4727 0.0050 0.0050 0 360 EARC s
n 0.5269 0.4742 0.0050 0.0050 0 360 EARC s
n 0.5289 0.4756 0.0050 0.0050 0 360 EARC s
n 0.5308 0.4770 0.0050 0.0050 0 360 EARC s
n 0.5327 0.4784 0.0050 0.0050 0 360 EARC s
n 0.5346 0.4798 0.0050 0.0050 0 360 EARC s
n 0.5365 0.4812 0.0050 0.0050 0 360 EARC s
n 0.5384 0.4826 0.0050 0.0050 0 360 EARC s
n 0.5403 0.4840 0.0050 0.0050 0 360 EARC s
n 0.5422 0.4854 0.0050 0.0050 0 360 EARC s
n 0.5441 0.4868 0.0050 0.0050 0 360 EARC s
n 0.5459 0.4881 0.0050 0.0050 0 360 EARC s
n 0.5478 0.4895 0.0050 0.0050 0 360 EARC s
n 0.5496 0.4909 0.0050 0.0050 0 360 EARC s
n 0.5515 0.4922 0.0050 0.0050 0 360 EARC s
n 0.5533 0.4936 0.0050 0.0050 0 360 EARC s
n 0.5551 0.4949 0.0050 0.0050 0 360 EARC s
n 0.5569 0.4963 0.0050 0.0050 0 360 EARC s
n 0.5588 0.4976 0.0050 0.0050 0 360 EARC s
n 0.5606 0.4989 0.0050 0.0050 0 360 EARC s
n 0.5624 0.5002 0.0050 0.0050 0 360 EARC s
n 0.5641 0.5016 0.0050 0.0050 0 360 EARC s
n 0.5659 0.5029 0.0050 0.0050 0 360 EARC s
n 0.5677 0.5042 0.0050 0.0050 0 360 EARC s
n 0.5695 0.5055 0.0050 0.0050 0 360 EARC s
n 0.5712 0.5068 0.0050 0.0050 0 360 EARC s
n 0.5730 0.5081 0.0050 0.0050 0 360 EARC s
n 0.5747 0.5094 0.0050 0.0050 0 360 EARC s
n 0.5765 0.5107 0.0050 0.0050 0 360 EARC s
n 0.5782 0.5119 0.0050 0.0050 0 360 EARC s
n 0.5800 0.5132 0.0050 0.0050 0 360 EARC s
n 0.5817 0.5145 0.0050 0.0050 0 360 EARC s
n 0.5834 0.5157 0.0050 0.0050 0 360 EARC s
n 0.5851 0.5170 0.0050 0.0050 0 360 EARC s
n 0.5868 0.5183 0.0050 0.0050 0 360 EARC s
n 0.5885 0.5195 0.0050 0.0050 0 360 EARC s
n 0.5902 0.5208 0.0050 0.0050 0 360 EARC s
n 0.5919 0.5220 0.0050 0.0050 0 360 EARC s
n 0.5936 0.5233 0.0050 0.0050 0 360 EARC s
n 0.5953 0.5245 0.0050 0.0050 0 360 EARC s
n 0.5970 0.5257 0.0050 0.0050 0 360 EARC s
n 0.5986 0.5270 0.0050 0.0050 0 360 EARC s
n 0.6003 0.5282 0.0050 0.0050 0 360 EARC s
n 0.6020 0.5294 0.0050 0.0050 0 360 EARC s
n 0.6036 0.5306 0.0050 0.0050 0 360 EARC s
n 0.6053 0.5318 0.0050 0.0050 0 360 EARC s
n 0.6069 0.5330 0.0050 0.0050 0 360 EARC s
n 0.6085 0.5342 0.0050 0.0050 0 360 EARC s
n 0.6102 0.5354 0.0050 0.0050 0 360 EARC s
n 0.6118 0.5366 0.0050 0.0050 0 360 EARC s
n 0.6134 0.5378 0.0050 0.0050 0 360 EARC s
n 0.6150 0.5390 0.0050 0.0050 0 360 EARC s
n 0.6166 0.5402 0.0050 0.0050 0 360 EARC s
n 0.6183 0.5414 0.0050 0.0050 0 360 EARC s
n 0.6199 0.5426 0.0050 0.0050 0 360 EARC s
n 0.6215 0.5437 0.0050 0.0050 0 360 EARC s
n 0.6230 0.5449 0.0050 0.0050 0 360 EARC s
n 0.6246 0.5461 0.0050 0.0050 0 360 EARC s
n 0.6262 0.5472 0.0050 0.0050 0 360 EARC s
n 0.6278 0.5484 0.0050 0.0050 0 360 EARC s
n 0.6294 0.5496 0.0050 0.0050 0 360 EARC s
n 0.6309 0.5507 0.0050 0.0050 0 360 EARC s
n 0.6325 0.5519 0.0050 0.0050 0 360 EARC s
n 0.6341 0.5530 0.0050 0.0050 0 360 EARC s
n 0.6356 0.5542 0.0050 0.0050 0 360 EARC s
n 0.6372 0.5553 0.0050 0.0050 0 360 EARC s
n 0.6387 0.5564 0.0050 0.0050 0 360 EARC s
n 0.6403 0.5576 0.0050 0.0050 0 360 EARC s
n 0.6418 0.5587 0.0050 0.0050 0 360 EARC s
n 0.6433 0.5598 0.0050 0.0050 0 360 EARC s
n 0.6449 0.5610 0.0050 0.0050 0 360 EARC s
n 0.6464 0.5621 0.0050 0.0050 0 360 EARC s
n 0.6479 0.5632 0.0050 0.0050 0 360 EARC s
n 0.6494 0.5643 0.0050 0.0050 0 360 EARC s
n 0.6509 0.5654 0.0050 0.0050 0 360 EARC s
n 0.6525 0.5665 0.0050 0.0050 0 360 EARC s
n 0.6540 0.5677 0.0050 0.0050 0 360 EARC s
n 0.6555 0.5688 0.0050 0.0050 0 360 EARC s
n 0.6570 0.5699 0.0050 0.0050 0 360 EARC s
n 0.6585 0.5710 0.0050 0.0050 0 360 EARC s
n 0.6599 0.5721 0.0050 0.0050 0 360 EARC s
n 0.6614 0.5731 0.0050 0.0050 0 360 EARC s
n 0.6629 0.5742 0.0050 0.0050 0 360 EARC s
n 0.6644 0.5753 0.0050 0.0050 0 360 EARC s
n 0.6659 0.5764 0.0050 0.0050 0 360 EARC s
n 0.6673 0.5775 0.0050 0.0050 0 360 EARC s
n 0.6688 0.5786 0.0050 0.0050 0 360 EARC s
n 0.6703 0.5796 0.0050 0.0050 0 360 EARC s
n 0.6717 0.5807 0.0050 0.0050 0 360 EARC s
n 0.6732 0.5818 0.0050 0.0050 0 360 EARC s
n 0.6746 0.5829 0.0050 0.0050 0 360 EARC s
n 0.6761 0.5839 0.0050 0.0050 0 360 EARC s
n 0.6775 0.5850 0.0050 0.0050 0 360 EARC s
n 0.6790 0.5860 0.0050 0.0050 0 360 EARC s
n 0.6804 0.5871 0.0050 0.0050 0 360 EARC s
n 0.6818 0.5882 0.0050 0.0050 0 360 EARC s
n 0.6833 0.5892 0.0050 0.0050 0 360 EARC s
n 0.6847 0.5903 0.0050 0.0050 0 360 EARC s
n 0.6861 0.5913 0.0050 0.0050 0 360 EARC s
n 0.6875 0.5924 0.0050 0.0050 0 360 EARC s
n 0.6890 0.5934 0.0050 0.0050 0 360 EARC s
n 0.6904 0.5944 0.0050 0.0050 0 360 EARC s
n 0.6918 0.5955 0.0050 0.0050 0 360 EARC s
n 0.6932 0.5965 0.0050 0.0050 0 360 EARC s
n 0.6946 0.5975 0.0050 0.0050 0 360 EARC s
n 0.6960 0.5986 0.0050 0.0050 0 360 EARC s
n 0.6974 0.5996 0.0050 0.0050 0 360 EARC s
n 0.6988 0.6006 0.0050 0.0050 0 360 EARC s
n 0.7002 0.6016 0.0050 0.0050 0 360 EARC s
n 0.7016 0.6027 0.0050 0.0050 0 360 EARC s
n 0.7030 0.6037 0.0050 0.0050 0 360 EARC s
n 0.7043 0.6047 0.0050 0.0050 0 360 EARC s
n 0.7057 0.6057 0.0050 0.0050 0 360 EARC s
n 0.7071 0.6067 0.0050 0.0050 0 360 EARC s
n 0.7085 0.6077 0.0050 0.0050 0 360 EARC s
n 0.7098 0.6087 0.0050 0.0050 0 360 EARC s
n 0.7112 0.6097 0.0050 0.0050 0 360 EARC s
n 0.7126 0.6107 0.0050 0.0050 0 360 EARC s
n 0.7139 0.6118 0.0050 0.0050 0 360 EARC s
n 0.7153 0.6127 0.0050 0.0050 0 360 EARC s
n 0.7166 0.6137 0.0050 0.0050 0 360 EARC s
n 0.7180 0.6147 0.0050 0.0050 0 360 EARC s
n 0.7193 0.6157 0.0050 0.0050 0 360 EARC s
n 0.7207 0.6167 0.0050 0.0050 0 360 EARC s
n 0.7220 0.6177 0.0050 0.0050 0 360 EARC s
n 0.7234 0.6187 0.0050 0.0050 0 360 EARC s
n 0.7247 0.6197 0.0050 0.0050 0 360 EARC s
n 0.7261 0.6207 0.0050 0.0050 0 360 EARC s
n 0.7274 0.6216 0.0050 0.0050 0 360 EARC s
n 0.7287 0.6226 0.0050 0.0050 0 360 EARC s
n 0.7300 0.6236 0.0050 0.0050 0 360 EARC s
n 0.7314 0.6246 0.0050 0.0050 0 360 EARC s
n 0.7327 0.6255 0.0050 0.0050 0 360 EARC s
n 0.7340 0.6265 0.0050 0.0050 0 360 EARC s
n 0.7353 0.6275 0.0050 0.0050 0 360 EARC s
n 0.7366 0.6284 0.0050 0.0050 0 360 EARC s
n 0.7379 0.6294 0.0050 0.0050 0 360 EARC s
n 0.7393 0.6304 0.0050 0.0050 0 360 EARC s
n 0.7406 0.6313 0.0050 0.0050 0 360 EARC s
n 0.7419 0.6323 0.0050 0.0050 0 360 EARC s
n 0.7432 0.6332 0.0050 0.0050 0 360 EARC s
n 0.7445 0.6342 0.0050 0.0050 0 360 EARC s
n 0.7458 0.6351 0.0050 0.0050 0 360 EARC s
n 0.7470 0.6361 0.0050 0.0050 0 360 EARC s
n 0.7483 0.6370 0.0050 0.0050 0 360 EARC s
n 0.7496 0.6380 0.0050 0.0050 0 360 EARC s
n 0.7509 0.6389 0.0050 0.0050 0 360 EARC s
n 0.7522 0.6399 0.0050 0.0050 0 360 EARC s
n 0.7535 0.6408 0.0050 0.0050 0 360 EARC s
n 0.7548 0.6418 0.0050 0.0050 0 360 EARC s
n 0.7560 0.6427 0.0050 0.0050 0 360 EARC s
n 0.7573 0.6436 0.0050 0.0050 0 360 EARC s
n 0.7586 0.6446 0.0050 0.0050 0 360 EARC s
n 0.7598 0.6455 0.0050 0.0050 0 360 EARC s
n 0.7611 0.6464 0.0050 0.0050 0 360 EARC s
n 0.7624 0.6473 0.0050 0.0050 0 360 EARC s
n 0.7636 0.6483 0.0050 0.0050 0 360 EARC s
n 0.7649 0.6492 0.0050 0.0050 0 360 EARC s
n 0.7661 0.6501 0.0050 0.0050 0 360 EARC s
n 0.7674 0.6510 0.0050 0.0050 0 360 EARC s
n 0.7686 0.6520 0.0050 0.0050 0 360 EARC s
n 0.7699 0.6529 0.0050 0.0050 0 360 EARC s
n 0.7711 0.6538 0.0050 0.0050 0 360 EARC s
n 0.7724 0.6547 0.0050 0.0050 0 360 EARC s
n 0.7736 0.6556 0.0050 0.0050 0 360 EARC s
n 0.7749 0.6565 0.0050 0.0050 0 360 EARC s
n 0.7761 0.6574 0.0050 0.0050 0 360 EARC s
n 0.7773 0.6584 0.0050 0.0050 0 360 EARC s
n 0.7786 0.6593 0.0050 0.0050 0 360 EARC s
n 0.7798 0.6602 0.0050 0.0050 0 360 EARC s
n 0.7810 0.6611 0.0050 0.0050 0 360 EARC s
n 0.7823 0.6620 0.0050 0.0050 0 360 EARC s
n 0.7835 0.6629 0.0050 0.0050 0 360 EARC s
n 0.7847 0.6638 0.0050 0.0050 0 360 EARC s
n 0.7859 0.6647 0.0050 0.0050 0 360 EARC s
n 0.7872 0.6656 0.0050 0.0050 0 360 EARC s
n 0.7884 0.6665 0.0050 0.0050 0 360 EARC s
n 0.7896 0.6673 0.0050 0.0050 0 360 EARC s
n 0.7908 0.6682 0.0050 0.0050 0 360 EARC s
n 0.7920 0.6691 0.0050 0.0050 0 360 EARC s
n 0.7932 0.6700 0.0050 0.0050 0 360 EARC s
n 0.7944 0.6709 0.0050 0.0050 0 360 EARC s
n 0.7956 0.6718 0.0050 0.0050 0 360 EARC s
n 0.7968 0.6727 0.0050 0.0050 0 360 EARC s
n 0.7980 0.6736 0.0050 0.0050 0 360 EARC s
n 0.7992 0.6744 0.0050 0.0050 0 360 EARC s
n 0.8004 0.6753 0.0050 0.0050 0 360 EARC s
n 0.8016 0.6762 0.0050 0.0050 0 360 EARC s
n 0.8028 0.6771 0.0050 0.0050 0 360 EARC s
n 0.8040 0.6779 0.0050 0.0050 0 360 EARC s
n 0.8052 0.6788 0.0050 0.0050 0 360 EARC s
n 0.8064 0.6797 0.0050 0.0050 0 360 EARC s
n 0.8075 0.6806 0.0050 0.0050 0 360 EARC s
n 0.8087 0.6814 0.0050 0.0050 0 360 EARC s
n 0.8099 0.6823 0.0050 0.0050 0 360 EARC s
n 0.8111 0.6832 0.0050 0.0050 0 360 EARC s
n 0.8123 0.6840 0.0050 0.0050 0 360 EARC s
n 0.8134 0.6849 0.0050 0.0050 0 360 EARC s
n 0.8146 0.6857 0.0050 0.0050 0 360 EARC s
n 0.8158 0.6866 0.0050 0.0050 0 360 EARC s
n 0.8170 0.6875 0.0050 0.0050 0 360 EARC s
n 0.8181 0.6883 0.0050 0.0050 0 360 EARC s
n 0.8193 0.6892 0.0050 0.0050 0 360 EARC s
n 0.8204 0.6900 0.0050 0.0050 0 360 EARC s
n 0.8216 0.6909 0.0050 0.0050 0 360 EARC s
n 0.8228 0.6917 0.0050 0.0050 0 360 EARC s
n 0.8239 0.6926 0.0050 0.0050 0 360 EARC s
n 0.8251 0.6934 0.0050 0.0050 0 360 EARC s
n 0.8262 0.6943 0.0050 0.0050 0 360 EARC s
n 0.8274 0.6951 0.0050 0.0050 0 360 EARC s
n 0.8285 0.6960 0.0050 0.0050 0 360 EARC s
n 0.8297 0.6968 0.0050 0.0050 0 360 EARC s
n 0.8308 0.6977 0.0050 0.0050 0 360 EARC s
n 0.8320 0.6985 0.0050 0.0050 0 360 EARC s
n 0.8331 0.6993 0.0050 0.0050 0 360 EARC s
n 0.8343 0.7002 0.0050 0.0050 0 360 EARC s
n 0.8354 0.7010 0.0050 0.0050 0 360 EARC s
n 0.8365 0.7019 0.0050 0.0050 0 360 EARC s
n 0.8377 0.7027 0.0050 0.0050 0 360 EARC s
n 0.8388 0.7035 0.0050 0.0050 0 360 EARC s
n 0.8399 0.7044 0.0050 0.0050 0 360 EARC s
n 0.8411 0.7052 0.0050 0.0050 0 360 EARC s
n 0.8422 0.7060 0.0050 0.0050 0 360 EARC s
n 0.8433 0.7068 0.0050 0.0050 0 360 EARC s
n 0.8445 0.7077 0.0050 0.0050 0 360 EARC s
n 0.8456 0.7085 0.0050 0.0050 0 360 EARC s
n 0.8467 0.7093 0.0050 0.0050 0 360 EARC s
n 0.8478 0.7101 0.0050 0.0050 0 360 EARC s
n 0.8489 0.7110 0.0050 0.0050 0 360 EARC s
n 0.8501 0.7118 0.0050 0.0050 0 360 EARC s
n 0.8512 0.7126 0.0050 0.0050 0 360 EARC s
n 0.8523 0.7134 0.0050 0.0050 0 360 EARC s
n 0.8534 0.7142 0.0050 0.0050 0 360 EARC s
n 0.8545 0.7151 0.0050 0.0050 0 360 EARC s
n 0.8556 0.7159 0.0050 0.0050 0 360 EARC s
n 0.8567 0.7167 0.0050 0.0050 0 360 EARC s
n 0.8578 0.7175 0.0050 0.0050 0 360 EARC s
n 0.8590 0.7183 0.0050 0.0050 0 360 EARC s
n 0.8601 0.7191 0.0050 0.0050 0 360 EARC s
n 0.8612 0.7199 0.0050 0.0050 0 360 EARC s
n 0.8623 0.7207 0.0050 0.0050 0 360 EARC s
n 0.8634 0.7215 0.0050 0.0050 0 360 EARC s
n 0.8645 0.7224 0.0050 0.0050 0 360 EARC s
n 0.8656 0.7232 0.0050 0.0050 0 360 EARC s
n 0.8666 0.7240 0.0050 0.0050 0 360 EARC s
n 0.8677 0.7248 0.0050 0.0050 0 360 EARC s
n 0.8688 0.7256 0.0050 0.0050 0 360 EARC s
n 0.8699 0.7264 0.0050 0.0050 0 360 EARC s
n 0.8710 0.7272 0.0050 0.0050 0 360 EARC s
n 0.8721 0.7280 0.0050 0.0050 0 360 EARC s
n 0.8732 0.7288 0.0050 0.0050 0 360 EARC s
n 0.8743 0.7296 0.0050 0.0050 0 360 EARC s
n 0.8753 0.7304 0.0050 0.0050 0 360 EARC s
n 0.8764 0.7311 0.0050 0.0050 0 360 EARC s
n 0.8775 0.7319 0.0050 0.0050 0 360 EARC s
n 0.8786 0.7327 0.0050 0.0050 0 360 EARC s
n 0.8797 0.7335 0.0050 0.0050 0 360 EARC s
n 0.8807 0.7343 0.0050 0.0050 0 360 EARC s
n 0.8818 0.7351 0.0050 0.0050 0 360 EARC s
n 0.8829 0.7359 0.0050 0.0050 0 360 EARC s
n 0.8839 0.7367 0.0050 0.0050 0 360 EARC s
n 0.8850 0.7375 0.0050 0.0050 0 360 EARC s
n 0.8861 0.7382 0.0050 0.0050 0 360 EARC s
n 0.8871 0.7390 0.0050 0.0050 0 360 EARC s
n 0.8882 0.7398 0.0050 0.0050 0 360 EARC s
n 0.8893 0.7406 0.0050 0.0050 0 360 EARC s
n 0.8903 0.7414 0.0050 0.0050 0 360 EARC s
n 0.8914 0.7421 0.0050 0.0050 0 360 EARC s
n 0.8925 0.7429 0.0050 0.0050 0 360 EARC s
n 0.8935 0.7437 0.0050 0.0050 0 360 EARC s
n 0.8946 0.7445 0.0050 0.0050 0 360 EARC s
n 0.8956 0.7453 0.0050 0.0050 0 360 EARC s
n 0.8967 0.7460 0.0050 0.0050 0 360 EARC s
n 0.8977 0.7468 0.0050 0.0050 0 360 EARC s
n 0.8988 0.7476 0.0050 0.0050 0 360 EARC s
n 0.8998 0.7483 0.0050 0.0050 0 360 EARC s
n 0.9009 0.7491 0.0050 0.0050 0 360 EARC s
n 0.9019 0.7499 0.0050 0.0050 0 360 EARC s
n 0.9030 0.7506 0.0050 0.0050 0 360 EARC s
n 0.9040 0.7514 0.0050 0.0050 0 360 EARC s
n 0.9051 0.7522 0.0050 0.0050 0 360 EARC s
n 0.9061 0.7529 0.0050 0.0050 0 360 EARC s
n 0.9071 0.7537 0.0050 0.0050 0 360 EARC s
n 0.9082 0.7545 0.0050 0.0050 0 360 EARC s
n 0.9092 0.7552 0.0050 0.0050 0 360 EARC s
n 0.9103 0.7560 0.0050 0.0050 0 360 EARC s
n 0.9113 0.7568 0.0050 0.0050 0 360 EARC s
n 0.9123 0.7575 0.0050 0.0050 0 360 EARC s
n 0.9134 0.7583 0.0050 0.0050 0 360 EARC s
n 0.9144 0.7590 0.0050 0.0050 0 360 EARC s
n 0.9154 0.7598 0.0050 0.0050 0 360 EARC s
n 0.9164 0.7605 0.0050 0.0050 0 360 EARC s
n 0.9175 0.7613 0.0050 0.0050 0 360 EARC s
n 0.9185 0.7620 0.0050 0.0050 0 360 EARC s
n 0.9195 0.7628 0.0050 0.0050 0 360 EARC s
n 0.9205 0.7636 0.0050 0.0050 0 360 EARC s
n 0.9216 0.7643 0.0050 0.0050 0 360 EARC s
n 0.9226 0.7651 0.0050 0.0050 0 360 EARC s
n 0.9236 0.7658 0.0050 0.0050 0 360 EARC s
n 0.9246 0.7665 0.0050 0.0050 0 360 EARC s
n 0.9256 0.7673 0.0050 0.0050 0 360 EARC s
n 0.9267 0.7680 0.0050 0.0050 0 360 EARC s
n 0.9277 0.7688 0.0050 0.0050 0 360 EARC s
n 0.9287 0.7695 0.0050 0.0050 0 360 EARC s
n 0.9297 0.7703 0.0050 0.0050 0 360 EARC s
n 0.9307 0.7710 0.0050 0.0050 0 360 EARC s
n 0.9317 0.7718 0.0050 0.0050 0 360 EARC s
n 0.9327 0.7725 0.0050 0.0050 0 360 EARC s
n 0.9337 0.7732 0.0050 0.0050 0 360 EARC s
n 0.9347 0.7740 0.0050 0.0050 0 360 EARC s
n 0.9357 0.7747 0.0050 0.0050 0 360 EARC s
n 0.9367 0.7755 0.0050 0.0050 0 360 EARC s
n 0.9378 0.7762 0.0050 0.0050 0 360 EARC s
n 0.9388 0.7769 0.0050 0.0050 0 360 EARC s
n 0.9398 0.7777 0.0050 0.0050 0 360 EARC s
n 0.9408 0.7784 0.0050 0.0050 0 360 EARC s
n 0.9417 0.7791 0.0050 0.0050 0 360 EARC s
n 0.9427 0.7799 0.0050 0.0050 0 360 EARC s
n 0.9437 0.7806 0.0050 0.0050 0 360 EARC s
n 0.9447 0.7813 0.0050 0.0050 0 360 EARC s
n 0.9457 0.7821 0.0050 0.0050 0 360 EARC s
n 0.9467 0.7828 0.0050 0.0050 0 360 EARC s
n 0.9477 0.7835 0.0050 0.0050 0 360 EARC s
n 0.9487 0.7842 0.0050 0.0050 0 360 EARC s
n 0.9497 0.7850 0.0050 0.0050 0 360 EARC s
n 0.9507 0.7857 0.0050 0.0050 0 360 EARC s
n 0.9517 0.7864 0.0050 0.0050 0 360 EARC s
n 0.9527 0.7871 0.0050 0.0050 0 360 EARC s
n 0.9536 0.7879 0.0050 0.0050 0 360 EARC s
n 0.9546 0.7886 0.0050 0.0050 0 360 EARC s
n 0.9556 0.7893 0.0050 0.0050 0 360 EARC s
n 0.9566 0.7900 0.0050 0.0050 0 360 EARC s
n 0.9576 0.7907 0.0050 0.0050 0 360 EARC s
n 0.9585 0.7915 0.0050 0.0050 0 360 EARC s
n 0.9595 0.7922 0.0050 0.0050 0 360 EARC s
n 0.9605 0.7929 0.0050 0.0050 0 360 EARC s
n 0.9615 0.7936 0.0050 0.0050 0 360 EARC s
n 0.9624 0.7943 0.0050 0.0050 0 360 EARC s
n 0.9634 0.7950 0.0050 0.0050 0 360 EARC s
n 0.9644 0.7958 0.0050 0.0050 0 360 EARC s
n 0.9654 0.7965 0.0050 0.0050 0 360 EARC s
n 0.9663 0.7972 0.0050 0.0050 0 360 EARC s
n 0.9673 0.7979 0.0050 0.0050 0 360 EARC s
n 0.9683 0.7986 0.0050 0.0050 0 360 EARC s
n 0.9692 0.7993 0.0050 0.0050 0 360 EARC s
n 0.9702 0.8000 0.0050 0.0050 0 360 EARC s
n 0.9712 0.8007 0.0050 0.0050 0 360 EARC s
n 0.9721 0.8014 0.0050 0.0050 0 360 EARC s
n 0.9731 0.8021 0.0050 0.0050 0 360 EARC s
n 0.9741 0.8029 0.0050 0.0050 0 360 EARC s
n 0.9750 0.8036 0.0050 0.0050 0 360 EARC s
n 0.9760 0.8043 0.0050 0.0050 0 360 EARC s
n 0.9769 0.8050 0.0050 0.0050 0 360 EARC s
n 0.9779 0.8057 0.0050 0.0050 0 360 EARC s
n 0.9788 0.8064 0.0050 0.0050 0 360 EARC s
n 0.9798 0.8071 0.0050 0.0050 0 360 EARC s
n 0.9808 0.8078 0.0050 0.0050 0 360 EARC s
n 0.9817 0.8085 0.0050 0.0050 0 360 EARC s
n 0.9827 0.8092 0.0050 0.0050 0 360 EARC s
n 0.9836 0.8099 0.0050 0.0050 0 360 EARC s
n 0.9846 0.8106 0.0050 0.0050 0 360 EARC s
n 0.9855 0.8113 0.0050 0.0050 0 360 EARC s
n 0.9865 0.8120 0.0050 0.0050 0 360 EARC s
n 0.9874 0.8127 0.0050 0.0050 0 360 EARC s
n 0.9884 0.8133 0.0050 0.0050 0 360 EARC s
n 0.9893 0.8140 0.0050 0.0050 0 360 EARC s
n 0.9902 0.8147 0.0050 0.0050 0 360 EARC s
n 0.9912 0.8154 0.0050 0.0050 0 360 EARC s
n 0.9921 0.8161 0.0050 0.0050 0 360 EARC s
n 0.9931 0.8168 0.0050 0.0050 0 360 EARC s
n 0.9940 0.8175 0.0050 0.0050 0 360 EARC s
n 0.9950 0.8182 0.0050 0.0050 0 360 EARC s
n 0.9959 0.8189 0.0050 0.0050 0 360 EARC s
n 0.9968 0.8196 0.0050 0.0050 0 360 EARC s
n 0.9978 0.8203 0.0050 0.0050 0 360 EARC s
n 0.9987 0.8209 0.0050 0.0050 0 360 EARC s
n 0.9996 0.8216 0.0050 0.0050 0 360 EARC s
n 1.0006 0.8223 0.0050 0.0050 0 360 EARC s
n 1.0015 0.8230 0.0050 0.0050 0 360 EARC s
n 1.0024 0.8237 0.0050 0.0050 0 360 EARC s
n 1.0034 0.8244 0.0050 0.0050 0 360 EARC s
n 1.0043 0.8251 0.0050 0.0050 0 360 EARC s
n 1.0052 0.8257 0.0050 0.0050 0 360 EARC s
n 1.0062 0.8264 0.0050 0.0050 0 360 EARC s
n 1.0071 0.8271 0.0050 0.0050 0 360 EARC s
n 1.0080 0.8278 0.0050 0.0050 0 360 EARC s
n 1.0089 0.8285 0.0050 0.0050 0 360 EARC s
n 1.0099 0.8291 0.0050 0.0050 0 360 EARC s
n 1.0108 0.8298 0.0050 0.0050 0 360 EARC s
n 1.0117 0.8305 0.0050 0.0050 0 360 EARC s
n 1.0126 0.8312 0.0050 0.0050 0 360 EARC s
n 1.0135 0.8318 0.0050 0.0050 0 360 EARC s
[/DeviceRGB] SCS
Color2 SC
[] 0 SD
0.0015 SLW
0 SLC
0 SLJ
n
0.1832 0.2206 m
0.1919 0.2269 l
0.2005 0.2333 l
0.2092 0.2397 l
0.2178 0.2460 l
0.2264 0.2524 l
0.2351 0.2588 l
0.2437 0.2651 l
0.2524 0.2715 l
0.2610 0.2779 l
0.2696 0.2842 l
0.2783 0.2906 l
0.2869 0.2969 l
0.2955 0.3033 l
0.3042 0.3097 l
0.3128 0.3160 l
0.3215 0.3224 l
0.3301 0.3288 l
0.3387 0.3351 l
0.3474 0.3415 l
0.3560 0.3478 l
0.3646 0.3542 l
0.3733 0.3606 l
0.3819 0.3669 l
0.3906 0.3733 l
0.3992 0.3797 l
0.4078 0.3860 l
0.4165 0.3924 l
0.4251 0.3988 l
0.4337 0.4051 l
0.4424 0.4115 l
0.4510 0.4178 l
0.4597 0.4242 l
0.4683 0.4306 l
0.4769 0.4369 l
0.4856 0.4433 l
0.4942 0.4497 l
0.5028 0.4560 l
0.5115 0.4624 l
0.5201 0.4688 l
0.5288 0.4751 l
0.5374 0.4815 l
0.5460 0.4878 l
0.5547 0.4942 l
0.5633 0.5006 l
0.5720 0.5069 l
0.5806 0.5133 l
0.5892 0.5197 l
0.5979 0.5260 l
0.6065 0.5324 l
0.6151 0.5387 l
0.6238 0.5451 l
0.6324 0.5515 l
0.6411 0.5578 l
0.6497 0.5642 l
0.6583 0.5706 l
0.6670 0.5769 l
0.6756 0.5833 l
0.6842 0.5897 l
0.6929 0.5960 l
0.7015 0.6024 l
0.7102 0.6087 l
0.7188 0.6151 l
0.7274 0.6215 l
0.7361 0.6278 l
0.7447 0.6342 l
0.7533 0.6406 l
0.7620 0.6469 l
0.7706 0.6533 l
0.7793 0.6597 l
0.7879 0.6660 l
0.7965 0.6724 l
0.8052 0.6787 l
0.8138 0.6851 l
0.8224 0.6915 l
0.8311 0.6978 l
0.8397 0.7042 l
0.8484 0.7106 l
0.8570 0.7169 l
0.8656 0.7233 l
0.8743 0.7296 l
0.8829 0.7360 l
0.8916 0.7424 l
0.9002 0.7487 l
0.9088 0.7551 l
0.9175 0.7615 l
0.9261 0.7678 l
0.9347 0.7742 l
0.9434 0.7806 l
0.9520 0.7869 l
0.9607 0.7933 l
0.9693 0.7996 l
0.9779 0.8060 l
0.9866 0.8124 l
0.9952 0.8187 l
1.0038 0.8251 l
1.0125 0.8315 l
1.0211 0.8378 l
1.0298 0.8442 l
1.0377 0.8501 l
s
[/DeviceRGB] SCS
Color1 SC
[] 0 SD
0.0030 SLW
n
0.1832 0.2206 m
0.1919 0.2269 l
0.2005 0.2333 l
0.2092 0.2397 l
0.2178 0.2460 l
0.2264 0.2524 l
0.2351 0.2588 l
0.2437 0.2651 l
0.2524 0.2715 l
0.2610 0.2779 l
0.2696 0.2842 l
0.2783 0.2906 l
0.2869 0.2969 l
0.2955 0.3033 l
0.3042 0.3097 l
0.3128 0.3160 l
0.3215 0.3224 l
0.3301 0.3288 l
0.3387 0.3351 l
0.3474 0.3415 l
0.3560 0.3478 l
0.3646 0.3542 l
0.3733 0.3606 l
0.3819 0.3669 l
0.3906 0.3733 l
0.3992 0.3797 l
0.4078 0.3860 l
0.4165 0.3924 l
0.4251 0.3988 l
0.4337 0.4051 l
0.4424 0.4115 l
0.4510 0.4178 l
0.4597 0.4242 l
0.4683 0.4306 l
0.4769 0.4369 l
0.4856 0.4433 l
0.4942 0.4497 l
0.5028 0.4560 l
0.5115 0.4624 l
0.5201 0.4688 l
0.5288 0.4751 l
0.5374 0.4815 l
0.5460 0.4878 l
0.5547 0.4942 l
0.5633 0.5006 l
0.5720 0.5069 l
0.5806 0.5133 l
0.5892 0.5197 l
0.5979 0.5260 l
0.6065 0.5324 l
0.6151 0.5387 l
0.6238 0.5451 l
0.6324 0.5515 l
0.6411 0.5578 l
0.6497 0.5642 l
0.6583 0.5706 l
0.6670 0.5769 l
0.6756 0.5833 l
0.6842 0.5897 l
0.6929 0.5960 l
0.7015 0.6024 l
0.7102 0.6087 l
0.7188 0.6151 l
0.7274 0.6215 l
0.7361 0.6278 l
0.7447 0.6342 l
0.7533 0.6406 l
0.7620 0.6469 l
0.7706 0.6533 l
0.7793 0.6597 l
0.7879 0.6660 l
0.7965 0.6724 l
0.8052 0.6787 l
0.8138 0.6851 l
0.8224 0.6915 l
0.8311 0.6978 l
0.8397 0.7042 l
0.8484 0.7106 l
0.8570 0.7169 l
0.8656 0.7233 l
0.8743 0.7296 l
0.8829 0.7360 l
0.8916 0.7424 l
0.9002 0.7487 l
0.9088 0.7551 l
0.9175 0.7615 l
0.9261 0.7678 l
0.9347 0.7742 l
0.9434 0.7806 l
0.9520 0.7869 l
0.9607 0.7933 l
0.9693 0.7996 l
0.9779 0.8060 l
0.9866 0.8124 l
0.9952 0.8187 l
1.0038 0.8251 l
1.0125 0.8315 l
1.0211 0.8378 l
1.0298 0.8442 l
1.0377 0.8501 l
s
n
0.2559 0.1500 m
0.2559 0.1700 l
s
n
0.2559 0.8500 m
0.2559 0.8300 l
s
n
0.4013 0.1500 m
0.4013 0.1700 l
s
n
0.4013 0.8500 m
0.4013 0.8300 l
s
n
0.5466 0.1500 m
0.5466 0.1700 l
s
n
0.5466 0.8500 m
0.5466 0.8300 l
s
n
0.6920 0.1500 m
0.6920 0.1700 l
s
n
0.6920 0.8500 m
0.6920 0.8300 l
s
n
0.8374 0.1500 m
0.8374 0.1700 l
s
n
0.8374 0.8500 m
0.8374 0.8300 l
s
n
0.9827 0.1500 m
0.9827 0.1700 l
s
n
0.9827 0.8500 m
0.9827 0.8300 l
s
n
0.1832 0.1500 m
0.1832 0.1800 l
s
n
0.1832 0.8500 m
0.1832 0.8200 l
s
n
0.3286 0.1500 m
0.3286 0.1800 l
s
n
0.3286 0.8500 m
0.3286 0.8200 l
s
n
0.4740 0.1500 m
0.4740 0.1800 l
s
n
0.4740 0.8500 m
0.4740 0.8200 l
s
n
0.6193 0.1500 m
0.6193 0.1800 l
s
n
0.6193 0.8500 m
0.6193 0.8200 l
s
n
0.7647 0.1500 m
0.7647 0.1800 l
s
n
0.7647 0.8500 m
0.7647 0.8200 l
s
n
0.9100 0.1500 m
0.9100 0.1800 l
s
n
0.9100 0.8500 m
0.9100 0.8200 l
s
/Helvetica findfont
dup length dict begin
 {1 index /FID ne {def} {pop pop} ifelse} forall
 /Encoding DefEncoding def
 currentdict
end
/Font12 exch definefont pop
/Font12 FFSF
0.1724 0.1104 m
GS
[0.0420 0.0000 0.0000 0.0420 0 0] CC
(0) show
GR
/Font12 FFSF
0.3178 0.1104 m
GS
[0.0420 0.0000 0.0000 0.0420 0 0] CC
(5) show
GR
/Font12 FFSF
0.4516 0.1104 m
GS
[0.0420 0.0000 0.0000 0.0420 0 0] CC
(10) show
GR
/Font12 FFSF
0.5969 0.1104 m
GS
[0.0420 0.0000 0.0000 0.0420 0 0] CC
(15) show
GR
/Font12 FFSF
0.7423 0.1104 m
GS
[0.0420 0.0000 0.0000 0.0420 0 0] CC
(20) show
GR
/Font12 FFSF
0.8876 0.1104 m
GS
[0.0420 0.0000 0.0000 0.0420 0 0] CC
(25) show
GR
/Font12 FFSF
0.5896 0.0688 m
GS
[0.0420 0.0000 0.0000 0.0420 0 0] CC
(t/s) show
GR
n
0.1832 0.2075 m
0.2032 0.2075 l
s
n
1.0384 0.2075 m
1.0184 0.2075 l
s
n
0.1832 0.3226 m
0.2032 0.3226 l
s
n
1.0384 0.3226 m
1.0184 0.3226 l
s
n
0.1832 0.4376 m
0.2032 0.4376 l
s
n
1.0384 0.4376 m
1.0184 0.4376 l
s
n
0.1832 0.5527 m
0.2032 0.5527 l
s
n
1.0384 0.5527 m
1.0184 0.5527 l
s
n
0.1832 0.6677 m
0.2032 0.6677 l
s
n
1.0384 0.6677 m
1.0184 0.6677 l
s
n
0.1832 0.7828 m
0.2032 0.7828 l
s
n
1.0384 0.7828 m
1.0184 0.7828 l
s
n
0.1832 0.1500 m
0.2132 0.1500 l
s
n
1.0384 0.1500 m
1.0084 0.1500 l
s
n
0.1832 0.2650 m
0.2132 0.2650 l
s
n
1.0384 0.2650 m
1.0084 0.2650 l
s
n
0.1832 0.3801 m
0.2132 0.3801 l
s
n
1.0384 0.3801 m
1.0084 0.3801 l
s
n
0.1832 0.4951 m
0.2132 0.4951 l
s
n
1.0384 0.4951 m
1.0084 0.4951 l
s
n
0.1832 0.6102 m
0.2132 0.6102 l
s
n
1.0384 0.6102 m
1.0084 0.6102 l
s
n
0.1832 0.7252 m
0.2132 0.7252 l
s
n
1.0384 0.7252 m
1.0084 0.7252 l
s
n
0.1832 0.8403 m
0.2132 0.8403 l
s
n
1.0384 0.8403 m
1.0084 0.8403 l
s
/Font12 FFSF
0.1516 0.1356 m
GS
[0.0420 0.0000 0.0000 0.0420 0 0] CC
(0) show
GR
/Font12 FFSF
0.1048 0.2506 m
GS
[0.0420 0.0000 0.0000 0.0420 0 0] CC
(200) show
GR
/Font12 FFSF
0.1048 0.3657 m
GS
[0.0420 0.0000 0.0000 0.0420 0 0] CC
(400) show
GR
/Font12 FFSF
0.1048 0.4807 m
GS
[0.0420 0.0000 0.0000 0.0420 0 0] CC
(600) show
GR
/Font12 FFSF
0.1048 0.5958 m
GS
[0.0420 0.0000 0.0000 0.0420 0 0] CC
(800) show
GR
/Font12 FFSF
0.0816 0.7108 m
GS
[0.0420 0.0000 0.0000 0.0420 0 0] CC
(1000) show
GR
/Font12 FFSF
0.0816 0.8259 m
GS
[0.0420 0.0000 0.0000 0.0420 0 0] CC
(1200) show
GR
/Font12 FFSF
0.0624 0.4536 m
GS
[0.0000 0.0420 -0.0420 0.0000 0 0] CC
(f/rpm) show
GR
n
0.1832 0.1500 m
0.1832 0.8500 l
1.0384 0.8500 l
1.0384 0.1500 l
0.1832 0.1500 l
c
s
%%Trailer
%%BoundingBox: 17 39 625 515
%%DocumentNeededResources: font Helvetica
%%EOF
